…
For see the schedule for a league in a specific year, you can use the
`schedule()` function. Just pass the season and the league:

``` r
schedule(season = 2024, league = "lmp")
#> ── LMP Stats data from MLB.com ─────────────────────────── baseballmexR 0.1.1 ──
#> ℹ Data updated: 2024-11-20 11:37:12 PST
#> # A tibble: 340 × 71
#>    date      total_items total_events total_games total_games_in_progr…¹ game_pk
#>    <chr>           <int>        <int>       <int>                  <int>   <int>
#>  1 2024-10-…           6            0           6                      0  787208
#>  2 2024-10-…           6            0           6                      0  787376
#>  3 2024-10-…          11            0          11                      0  787020
#>  4 2024-10-…          11            0          11                      0  787093
#>  5 2024-10-…          11            0          11                      0  787277
#>  6 2024-10-…          11            0          11                      0  787244
#>  7 2024-10-…           9            0           9                      0  787170
#>  8 2024-10-…           9            0           9                      0  787312
#>  9 2024-10-…           9            0           9                      0  787057
#> 10 2024-10-…           9            0           9                      0  787345
#> # ℹ 330 more rows
#> # ℹ abbreviated name: ¹​total_games_in_progress
#> # ℹ 65 more variables: game_guid <chr>, link <chr>, game_type <chr>,
#> #   season <chr>, game_date <chr>, official_date <chr>, is_tie <lgl>,
#> #   game_number <int>, public_facing <lgl>, double_header <chr>,
#> #   gameday_type <chr>, tiebreaker <chr>, calendar_event_id <chr>,
#> #   season_display <chr>, day_night <chr>, scheduled_innings <int>, …
```

You can also pull data for a specific stat type and season for a league.
Here are the results hitting stats for the 2023 season in the LMB:

``` r
stats(league = "lmb", stat_group = "hitting", stat_type = "season", season = 2024, player_pool = "all")
#> [1] "http://statsapi.mlb.com/api/v1/stats?stats=season&playerPool=all&group=hitting&season=2024&leagueIds=125&limit=1000"
#> ── LMB Stats data from MLB.com ─────────────────────────── baseballmexR 0.1.1 ──
#> ℹ Data updated: 2024-11-20 11:37:12 PST
#> # A tibble: 450 × 59
#>    total_splits season num_teams  rank games_played ground_outs air_outs  runs
#>           <int> <chr>      <int> <int>        <int>       <int>    <int> <int>
#>  1          450 2024           1     1            1           0        0     0
#>  2          450 2024           1     1            1           0        0     1
#>  3          450 2024           1     3            5           1        0     2
#>  4          450 2024           1     4            8           0        0     2
#>  5          450 2024           1     5            3           0        0     0
#>  6          450 2024           1     5            3           2        0     0
#>  7          450 2024           1     7            7           7        1     4
#>  8          450 2024           1     8           78          90       58    62
#>  9          450 2024           1     9           85          79       68    64
#> 10          450 2024           1    10            3           1        3     1
#> # ℹ 440 more rows
#> # ℹ 51 more variables: doubles <int>, triples <int>, home_runs <int>,
#> #   strike_outs <int>, base_on_balls <int>, intentional_walks <int>,
#> #   hits <int>, hit_by_pitch <int>, avg <chr>, at_bats <int>, obp <chr>,
#> #   slg <chr>, ops <chr>, caught_stealing <int>, stolen_bases <int>,
#> #   stolen_base_percentage <chr>, ground_into_double_play <int>,
#> #   number_of_pitches <int>, plate_appearances <int>, total_bases <int>, …
```
